{
    "experimentalSourceRewriting":false,
    "chromeWebSecurity":false,
    "defaultCommandTimeout": 10000,
    "parseSpecialCharSequences": true,
    "reporter": "mochawesome",
    "projectId": "9t3o49",
    "env":{

        "url" : "https://dev-dhi.90d.io/"

    },
    "testFiles": [
        "regression.js"
        ]
}
