{
  "stats": {
    "suites": 1,
    "tests": 12,
    "passes": 12,
    "pending": 1,
    "failures": -1,
    "start": "2021-03-08T10:59:01.436Z",
    "end": "2021-03-08T11:01:05.172Z",
    "duration": 123736,
    "testsRegistered": 13,
    "passPercent": 100,
    "pendingPercent": 7.6923076923076925,
    "other": 1,
    "hasOther": true,
    "skipped": 1,
    "hasSkipped": true
  },
  "results": [
    {
      "uuid": "1b70eb1a-011b-48da-b6ba-2cf6b03241c8",
      "title": "",
      "fullFile": "cypress/integration/regression.js",
      "file": "cypress/integration/regression.js",
      "beforeHooks": [],
      "afterHooks": [],
      "tests": [],
      "suites": [
        {
          "uuid": "417cf431-6e19-473d-98bf-2d4858b47579",
          "title": "Regression Test",
          "fullFile": "",
          "file": "",
          "beforeHooks": [],
          "afterHooks": [],
          "tests": [
            {
              "title": "Login into the application with wrong username/Password",
              "fullTitle": "Regression Test Login into the application with wrong username/Password",
              "timedOut": null,
              "duration": 9927,
              "state": "passed",
              "speed": "slow",
              "pass": true,
              "fail": false,
              "pending": false,
              "context": null,
              "code": "var login = new _Login[\"default\"]();\ncy.log(\"Logging with wrong username & password\");\nlogin.getEmail().type(this.data.WrongUserName);\nlogin.getPassword().type(this.data.Wrongpass);\nlogin.getSigninButton().click();\nlogin.getnotification().should('contain', 'Failed!');\ncy.wait(1000);",
              "err": {},
              "uuid": "0ce07eb5-5888-4785-8a0a-14a802ae9d7f",
              "parentUUID": "417cf431-6e19-473d-98bf-2d4858b47579",
              "isHook": false,
              "skipped": false
            },
            {
              "title": "Test to Login into the application ",
              "fullTitle": "Regression Test Test to Login into the application ",
              "timedOut": null,
              "duration": 3684,
              "state": "passed",
              "speed": "slow",
              "pass": true,
              "fail": false,
              "pending": false,
              "context": null,
              "code": "var login = new _Login[\"default\"]();\nvar dash = new _Dashboard[\"default\"]();\ncy.log(\"Logging with correct username & password\");\nlogin.getEmail().clear();\nlogin.getPassword().clear();\nlogin.getEmail().type(this.data.CorrectUsername);\nlogin.getPassword().type(this.data.CorrectPassword);\nlogin.getSigninButton().click();\ncy.log(\"Dashboard test\");\ndash.getTitle().should('be.visible');\ndash.getLogo().should('be.visible');\ncy.getLocalStorage(\"default_auth_token\").should('exist'); //cy.genRandomNum()",
              "err": {},
              "uuid": "ff8207c1-e0fb-439f-b055-3337af59e1a6",
              "parentUUID": "417cf431-6e19-473d-98bf-2d4858b47579",
              "isHook": false,
              "skipped": false
            },
            {
              "title": "Test to check all basic components are present in dashboard and traverse to account creation page ",
              "fullTitle": "Regression Test Test to check all basic components are present in dashboard and traverse to account creation page ",
              "timedOut": null,
              "duration": 0,
              "state": "pending",
              "speed": null,
              "pass": false,
              "fail": false,
              "pending": true,
              "context": null,
              "code": "",
              "err": {},
              "uuid": "760ab3a2-4e8b-41ff-9f37-2db128edc91b",
              "parentUUID": "417cf431-6e19-473d-98bf-2d4858b47579",
              "isHook": false,
              "skipped": false
            },
            {
              "title": "Create new Account",
              "fullTitle": "Regression Test Create new Account",
              "timedOut": null,
              "duration": 15178,
              "state": "passed",
              "speed": "slow",
              "pass": true,
              "fail": false,
              "pending": false,
              "context": null,
              "code": "var account = new _createAccount[\"default\"]();\nvar dash = new _Dashboard[\"default\"]();\ndash.getBrandsPageAlt().click();\naccount.getpageTitle().should('have.text', 'Brands');\ncy.log(\"Account creation!\");\nvar Accountname = user.accountName;\nvar Accountusername = user.username;\nvar useremail = user.email;\ncy.log('Creating accountname with ' + Accountname);\ncy.log('Creating username with ' + Accountusername);\ncy.log('Creating userEmail with ' + useremail);\nfor (var i = 0; i < 2; i++) {\n  account.getcreateAccountbtn().click();\n  if (i == 0) {\n    cy.log(\"Chcking Cancel button is working or not\");\n    account.getcancelAccCreation().click();\n    cy.wait(1000);\n  } else {\n    account.getAccountNamebox().click();\n    account.getAccountNamebox().type(Accountname);\n    account.getAccountAdminName().click({\n      force: true\n    });\n    account.getAccountAdminName().type(Accountusername);\n    account.getAccountAdminEmail().click({\n      force: true\n    });\n    account.getAccountAdminEmail().type(useremail);\n    account.getTimezoneBox().click();\n    account.getTimezoneInputbox().type('Kolkata').then(function () {\n      account.getTimezoneInputbox().type('{downarrow}{enter}');\n    });\n    cy.wait(1000);\n    account.getcreateAccountUserBtn().click();\n  }\n}\ncy.wait(5000);\ndash.getBrandsPageAlt().click();\ncy.log(\"Check for 1st account\");\naccount.getFirstAccountName().should(function ($div) {\n  expect($div.get(0).innerText).to.include(Accountname.toUpperCase());\n});\ncy.log(\"Check for 1st Brand in 1st account\");\naccount.getFirstbrand().should('contain', Accountname);\n/* account.getFirstbrand().should(($div) => {\n   expect($div.get(0).innerText).to.include(Accountname)\n}) */\ncy.getLocalStorage(\"default_auth_token\").should('exist');",
              "err": {},
              "uuid": "50c90620-0fda-48ca-80f0-81c183f77f5f",
              "parentUUID": "417cf431-6e19-473d-98bf-2d4858b47579",
              "isHook": false,
              "skipped": false
            },
            {
              "title": "Edit Brand",
              "fullTitle": "Regression Test Edit Brand",
              "timedOut": null,
              "duration": 17915,
              "state": "passed",
              "speed": "slow",
              "pass": true,
              "fail": false,
              "pending": false,
              "context": null,
              "code": "var account = new _createAccount[\"default\"]();\nvar dash = new _Dashboard[\"default\"]();\ndash.getBrandsPageAlt().click();\naccount.getBrandSettingButton().click({\n  force: true\n}).then(function () {\n  account.getEditBrandbutton().click();\n});\ncy.wait(2000);\naccount.uploadfiles().attachFile('Logo2.png').attachFile('Logo1.png').attachFile('Logo3.png').attachFile('Logo4.png').attachFile('Logo5.png');\ncy.wait(1000);\nvar landingUrl = user.landingpageurl;\ncy.log(\"Landing Page URL  : \" + landingUrl);\naccount.getLandingPageURLBox().type(landingUrl);\naccount.saveLandingPageURL().click();\naccount.saveEditBrandDetails().click();\ncy.wait(3000);\ndash.getBrandsPageAlt().click();\ncy.wait(5000);\ncy.reload();\ndash.getBrandsPageAlt().click();\naccount.countLogos().find('img').should('have.length', 5); //Logo Deletion\n/* account.deleteLogos().each(($e,i,$list)=>{\n if(i==0){\n     account.deleteLogos().eq(i).click()\n }\n}) */\ncy.getLocalStorage(\"default_auth_token\").should('exist');",
              "err": {},
              "uuid": "6f22f091-cf87-4633-bae4-34c2f4031d8d",
              "parentUUID": "417cf431-6e19-473d-98bf-2d4858b47579",
              "isHook": false,
              "skipped": false
            },
            {
              "title": "Adding user to the 1st Account",
              "fullTitle": "Regression Test Adding user to the 1st Account",
              "timedOut": null,
              "duration": 4554,
              "state": "passed",
              "speed": "slow",
              "pass": true,
              "fail": false,
              "pending": false,
              "context": null,
              "code": "var account = new _createAccount[\"default\"]();\nvar dash = new _Dashboard[\"default\"]();\ndash.getBrandsPageAlt().click();\nvar observername = user.username_obs;\ncy.log(observername);\nvar observeremail = user.email_obs;\ncy.log(observeremail);\naccount.getaccountsetiings().click();\naccount.getOptionsinAccSettings().find('button').should('have.length', 3);\naccount.getAddAccUserBtn().click();\naccount.getAddUserBtn().click();\naccount.getObsusername().click();\naccount.getObsusername().type(observername);\naccount.getObsemail().click();\naccount.getObsemail().type(observeremail);\naccount.selectuserRole().click({\n  force: true\n});\naccount.getUserRoleInputBox().type('Account Observer').then(function () {\n  account.getUserRoleInputBox().type('{downarrow}{enter}');\n});\ncy.wait(2000);\naccount.getAccUserRegisterBtn().click();",
              "err": {},
              "uuid": "512f8bbd-6abf-450a-a70c-5fd5457def18",
              "parentUUID": "417cf431-6e19-473d-98bf-2d4858b47579",
              "isHook": false,
              "skipped": false
            },
            {
              "title": "Create Story",
              "fullTitle": "Regression Test Create Story",
              "timedOut": null,
              "duration": 11346,
              "state": "passed",
              "speed": "slow",
              "pass": true,
              "fail": false,
              "pending": false,
              "context": null,
              "code": "var dash = new _Dashboard[\"default\"]();\nvar account = new _createAccount[\"default\"]();\nvar story = new _createStory[\"default\"]();\nvar storycreate = new _storyedit[\"default\"]();\ndash.getBrandsPageAlt().click();\naccount.getFirstbrand().click();\ncy.wait(2000);\nstory.getStoryPageTitle().should('contain', 'Stories');\nstory.getCreateStoryBtn().click();\nvar storyname = user.StoryName;\nvar localstoryname = user.StoryLocalname;\nstory.getStoryDisplayNamebox().type(storyname, {\n  force: true\n});\nstory.getLocalName().type(localstoryname);\nstory.getCreatebtn().click();\ncy.wait(1000);\nstorycreate.getAddFirstframeBtn().should('be.visible').and('be.enabled').then(function () {\n  storycreate.getStoryEditCloseBTN().click();\n});",
              "err": {},
              "uuid": "99af27a8-1426-4f77-9664-3b632a8a67c7",
              "parentUUID": "417cf431-6e19-473d-98bf-2d4858b47579",
              "isHook": false,
              "skipped": false
            },
            {
              "title": "Create/Edit Story",
              "fullTitle": "Regression Test Create/Edit Story",
              "timedOut": null,
              "duration": 12984,
              "state": "passed",
              "speed": "slow",
              "pass": true,
              "fail": false,
              "pending": false,
              "context": null,
              "code": "var account = new _createAccount[\"default\"]();\nvar story = new _createStory[\"default\"]();\nvar storycreate = new _storyedit[\"default\"]();\nvar dash = new _Dashboard[\"default\"]();\nvar storyname = user.StoryName;\nvar localstoryname = user.StoryLocalname;\ndash.getBrandsPageAlt().click();\naccount.getFirstbrand().click();\ncy.wait(2000);\nstory.getStoryPageTitle().should('contain', 'Stories');\nstory.getStoryList().children().then(function ($e) {\n  var len = $e.length;\n  cy.log(\"No.of Stories--> \" + len);\n  if (parseInt(len) > 0) {\n    story.getFirstStorynameFromList().then(function ($name) {\n      var firststoryname = $name.text();\n      cy.log(\"first story name->\" + firststoryname);\n    }).then(function () {\n      story.getFirstStoryMenu().click();\n      story.getEditStoryFromMenu().click();\n    });\n  } else {\n    cy.log(\"yo\");\n    story.getCreateStoryBtn().click();\n    story.getStoryDisplayNamebox().type(storyname, {\n      force: true\n    });\n    story.getLocalName().type(localstoryname);\n    story.getCreatebtn().click();\n    cy.wait(1000);\n  }\n  storycreate.getAddFirstframeBtn().should('be.visible').and('be.enabled');\n  storycreate.getStoryTitle().should('be.visible');\n  storycreate.getAddFirstframeBtn().click();\n  storycreate.getUploadTAB().click();\n  storycreate.getUploadedFrameList().then(function ($f) {\n    if (!Cypress.dom.isVisible($f)) {\n      //cy.log(\"Notpresent\")\n      cy.uplaodFrames();\n    }\n    /* else{\n         storycreate.getUploadedFrameList().find('div').then(function(e){\n            var len=e.length\n            cy.log(\"no.of existong frames--->\"+ len)\n                cy.log(\"Frames present, proceeding to story creation directly\")\n                storycreate.getClosebutton().click({force:true})\n        })\n        \n     } */\n  });\n});",
              "err": {},
              "uuid": "ca4ac4c1-307b-4abe-b2f7-bfe0ca9e019f",
              "parentUUID": "417cf431-6e19-473d-98bf-2d4858b47579",
              "isHook": false,
              "skipped": false
            },
            {
              "title": "Add Frames to the story",
              "fullTitle": "Regression Test Add Frames to the story",
              "timedOut": null,
              "duration": 6725,
              "state": "passed",
              "speed": "slow",
              "pass": true,
              "fail": false,
              "pending": false,
              "context": null,
              "code": "var storycreate = new _storyedit[\"default\"]();\ncy.wait(2000);\nstorycreate.getAddFirstframeBtn().click();\nstorycreate.getUploadTAB().click();\nstorycreate.getUploadedFrameList().find('div').each(function ($e, i, $list) {\n  if (i < 3) {\n    $e.click();\n  }\n});\nstorycreate.getAddframeBtn().click();\ncy.wait(3000);\nstorycreate.getStoryCreationDone().click();\n/*  storycreate.getDesignframeBTN().then(function($el){\n     if(Cypress.dom.isVisible($el)){\n         cy.log(\"i'm there!!!!\")\n         storycreate.getAddFrameLeftBtn().click()\n         storycreate.getUploadTAB().click()\n         storycreate.getUploadedFrameList().find('div').each(($e,i,$list)=>{\n                 if(i<2){\n                     $e.click()\n                 }\n         })\n         storycreate.getAddframeBtn().click()\n         cy.wait(3000)\n         storycreate.getStoryCreationDone().click()\n      }\n     else{\n         storycreate.getAddFirstframeBtn().click()\n         storycreate.getUploadTAB().click()\n         storycreate.getUploadedFrameList().find('div').each(($e,i,$list)=>{\n                 if(i<3){\n                     $e.click()\n                 }\n         })\n         storycreate.getAddframeBtn().click()\n         cy.wait(3000)\n         storycreate.getStoryCreationDone().click()\n      }\n }) */",
              "err": {},
              "uuid": "1116b7f9-262c-4798-a59c-e68e88f924d9",
              "parentUUID": "417cf431-6e19-473d-98bf-2d4858b47579",
              "isHook": false,
              "skipped": false
            },
            {
              "title": "StoryAd creation",
              "fullTitle": "Regression Test StoryAd creation",
              "timedOut": null,
              "duration": 11635,
              "state": "passed",
              "speed": "slow",
              "pass": true,
              "fail": false,
              "pending": false,
              "context": null,
              "code": "var dash = new _Dashboard[\"default\"]();\nvar storyAd = new _storyAds[\"default\"]();\ndash.getStoryAdsPageAlt().click();\nstoryAd.getPageTitle().should('contain', 'Story Ads');\nstoryAd.getCreateStoryAdsBtn().click();\ncy.reload();\nstoryAd.getFirstStory().click();\nstoryAd.getSelectedicon().should('be.visible');\nstoryAd.getApplyBtnWhileCreatingStory().click();\nstoryAd.getFrameSelectionList().find('div').then(function ($e) {\n  var no_of_frames = $e.length;\n  cy.log(\"No.of Frames found = \" + no_of_frames);\n  if (no_of_frames > 0) {\n    storyAd.getFrameSelectionList().find('div').each(function ($e, i, $list) {\n      $e.click();\n    });\n  }\n});\nstoryAd.getStoryAdFrameApply().click(); //edit storyAd contents\nstoryAd.selectThirdLogo().click();\nstoryAd.getinputBoxForStoryAd().type(\"This is a Test\");\nstoryAd.getAddTextlabel().click();\nstoryAd.getSubtitileinputBoxforStoryAd().type(\"This is a subtitle test\");\nstoryAd.getFontContainer().click();\nstoryAd.getFontInputBox().type('Jaldi').then(function () {\n  storyAd.getFontInputBox().type('{downarrow}{enter}');\n});\nstoryAd.getStoryAdThemesList().children().then(function ($e) {\n  cy.log(\"no.of themes---> \" + $e.length);\n}); //Selecting 2 300x600 storyADs\ncy.selectStoryAd(\"300x600\", 2); //Selecting 2 300x250 storyADs\ncy.selectStoryAd(\"300x250\", 2);\nstoryAd.getEditStoryAdNamelabelBtn().eq(1).click();\nstoryAd.getInputboxStoryAdName().clear();\nstoryAd.getInputboxStoryAdName().type(\"Test Story ads by cypress\");\nstoryAd.saveStoryAdname().click({\n  force: true\n});\nstoryAd.saveAds().click();",
              "err": {},
              "uuid": "dac5663e-d1ca-4523-996e-bf52b3f75d02",
              "parentUUID": "417cf431-6e19-473d-98bf-2d4858b47579",
              "isHook": false,
              "skipped": false
            },
            {
              "title": "Create Tags",
              "fullTitle": "Regression Test Create Tags",
              "timedOut": null,
              "duration": 6754,
              "state": "passed",
              "speed": "slow",
              "pass": true,
              "fail": false,
              "pending": false,
              "context": null,
              "code": "var dash = new _Dashboard[\"default\"]();\nvar tag = new _tag[\"default\"]();\ndash.getTagPageAlt().click();\ntag.getCreatetagBtn().click();\ntag.getTagNameinputBox().type(user.TagName);\ntag.getCampaignNameLabel().click();\ntag.getCampaignNameinputbox().type(user.CampaignName);\ntag.adsdLandingPageURL().click();\ntag.getLandingPageInputBox().type(user.landingpageurl);\ntag.getAddUrlBtn().click();\ntag.getsavetag().click();",
              "err": {},
              "uuid": "745556e5-f8c9-43ab-a1c7-d07e065af908",
              "parentUUID": "417cf431-6e19-473d-98bf-2d4858b47579",
              "isHook": false,
              "skipped": false
            },
            {
              "title": "Create Rule",
              "fullTitle": "Regression Test Create Rule",
              "timedOut": null,
              "duration": 9631,
              "state": "passed",
              "speed": "slow",
              "pass": true,
              "fail": false,
              "pending": false,
              "context": null,
              "code": "var rule = new _rule[\"default\"]();\nrule.createRuleBtn().click();\nrule.getRuleNameInputBox().type(user.RuleName);\nrule.getStoryAds().click();\ncy.wait(3000);\nrule.get1stStoryAdinStoryAdSpace().trigger('mouseover').then(function () {\n  cy.get('#add-ads').invoke('show').click({\n    force: true\n  });\n});\nrule.getSelecStoryAdDoneBtn().click();\ncy.wait(1000);\nrule.saveRule().click();\ncy.wait(1000);\nrule.backtoTagPage().click();",
              "err": {},
              "uuid": "78184902-d88e-4839-8458-0d32b723d873",
              "parentUUID": "417cf431-6e19-473d-98bf-2d4858b47579",
              "isHook": false,
              "skipped": false
            },
            {
              "title": "Edit tag",
              "fullTitle": "Regression Test Edit tag",
              "timedOut": null,
              "duration": 9167,
              "state": "passed",
              "speed": "slow",
              "pass": true,
              "fail": false,
              "pending": false,
              "context": null,
              "code": "var dash = new _Dashboard[\"default\"]();\nvar tag = new _tag[\"default\"]();\ndash.getTagPageAlt().click();\ntag.getTagList().children().then(function () {\n  tag.getTagList().children().eq(0).find('#tag-menu').click();\n});\ntag.getEditTagOption().eq(0).click();\ncy.wait(2000);\nvar newTagName = user.TagName;\ncy.log(\"NEw tag name=\" + newTagName);\ntag.getTagNameinputBox().clear();\ntag.getTagNameinputBox().type(newTagName);\ntag.getsavetag().click();\ncy.wait(2000);\ntag.searchTag().type(newTagName);\ntag.getfirstTagName().should('contain', newTagName);",
              "err": {},
              "uuid": "687f48fb-623b-49c7-80b9-85bc4ac0cf91",
              "parentUUID": "417cf431-6e19-473d-98bf-2d4858b47579",
              "isHook": false,
              "skipped": false
            }
          ],
          "suites": [],
          "passes": [
            "0ce07eb5-5888-4785-8a0a-14a802ae9d7f",
            "ff8207c1-e0fb-439f-b055-3337af59e1a6",
            "50c90620-0fda-48ca-80f0-81c183f77f5f",
            "6f22f091-cf87-4633-bae4-34c2f4031d8d",
            "512f8bbd-6abf-450a-a70c-5fd5457def18",
            "99af27a8-1426-4f77-9664-3b632a8a67c7",
            "ca4ac4c1-307b-4abe-b2f7-bfe0ca9e019f",
            "1116b7f9-262c-4798-a59c-e68e88f924d9",
            "dac5663e-d1ca-4523-996e-bf52b3f75d02",
            "745556e5-f8c9-43ab-a1c7-d07e065af908",
            "78184902-d88e-4839-8458-0d32b723d873",
            "687f48fb-623b-49c7-80b9-85bc4ac0cf91"
          ],
          "failures": [],
          "pending": [
            "760ab3a2-4e8b-41ff-9f37-2db128edc91b"
          ],
          "skipped": [],
          "duration": 119500,
          "root": false,
          "rootEmpty": false,
          "_timeout": 2000
        }
      ],
      "passes": [],
      "failures": [],
      "pending": [],
      "skipped": [],
      "duration": 0,
      "root": true,
      "rootEmpty": true,
      "_timeout": 2000
    }
  ],
  "meta": {
    "mocha": {
      "version": "7.0.1"
    },
    "mochawesome": {
      "options": {
        "quiet": false,
        "reportFilename": "mochawesome",
        "saveHtml": true,
        "saveJson": true,
        "consoleReporter": "spec",
        "useInlineDiffs": false,
        "code": true
      },
      "version": "6.2.2"
    },
    "marge": {
      "options": null,
      "version": "5.2.0"
    }
  }
}